test/saida8.vcd
$date
	Tue Jul 29 20:46:15 2025
$end
$version
	Icarus Verilog
$end
$timescale
	1ps
$end
$scope module tb $end
$var reg 1 ! clk $end
$var reg 8 " counter [7:0] $end
$var reg 32 # expected_result [31:0] $end
$var reg 1 $ rst_n $end
$scope module t $end
$var wire 1 % ack_o $end
$var wire 1 ! clk $end
$var wire 1 $ rst_n $end
$var wire 1 & wr_en_core_to_mem $end
$var wire 1 ' rd_en_core_to_mem $end
$var wire 32 ( data_i_mem_to_core [31:0] $end
$var wire 32 ) data_core_to_mem [31:0] $end
$var wire 32 * addr_core_to_mem [31:0] $end
$var parameter 96 + MEMORY_FILE $end
$scope module core_processador $end
$var wire 32 , addr_o [31:0] $end
$var wire 1 ! clk $end
$var wire 32 - data_o [31:0] $end
$var wire 1 ' rd_en_o $end
$var wire 1 $ rst_n $end
$var wire 1 & wr_en_o $end
$var wire 5 . write_register [4:0] $end
$var wire 32 / wire_regB [31:0] $end
$var wire 32 0 wire_regA [31:0] $end
$var wire 4 1 wire_alu_op_o [3:0] $end
$var wire 5 2 registradorB [4:0] $end
$var wire 5 3 registradorA [4:0] $end
$var wire 1 4 reg_write $end
$var wire 1 5 pc_write_cond $end
$var wire 1 6 pc_write $end
$var wire 1 7 pc_source $end
$var wire 32 8 pc_MUX [31:0] $end
$var wire 7 9 opCode [6:0] $end
$var wire 32 : mux_saida_ULA [31:0] $end
$var wire 32 ; mux_WriteData [31:0] $end
$var wire 32 < mux_B_to_ULA [31:0] $end
$var wire 32 = mux_A_to_ULA [31:0] $end
$var wire 1 > memory_write $end
$var wire 1 ? memory_to_reg $end
$var wire 1 @ memory_read $end
$var wire 1 A lorD $end
$var wire 1 B is_immediate $end
$var wire 1 C ir_write $end
$var wire 32 D imediato_out [31:0] $end
$var wire 7 E func7 [6:0] $end
$var wire 3 F func3 [2:0] $end
$var wire 32 G data_i [31:0] $end
$var wire 2 H aluop [1:0] $end
$var wire 1 I alu_zero $end
$var wire 2 J alu_src_b [1:0] $end
$var wire 2 K alu_src_a [1:0] $end
$var wire 32 L alu_result [31:0] $end
$var parameter 32 M BOOT_ADDRESS $end
$var reg 32 N PC [31:0] $end
$var reg 32 O PC_OLD [31:0] $end
$var reg 32 P instruction [31:0] $end
$var reg 32 Q regA [31:0] $end
$var reg 32 R regB [31:0] $end
$var reg 32 S reg_Alu_Out [31:0] $end
$var reg 32 T reg_memory_data [31:0] $end
$scope module alu_inst $end
$var wire 32 U ALU_RS1_i [31:0] $end
$var wire 32 V ALU_RS2_i [31:0] $end
$var wire 1 I ALU_ZR_o $end
$var wire 4 W ALU_OP_i [3:0] $end
$var parameter 4 X AND $end
$var parameter 4 Y EQUAL $end
$var parameter 4 Z GREATER_EQUAL $end
$var parameter 4 [ GREATER_EQUAL_U $end
$var parameter 4 \ NOR $end
$var parameter 4 ] OR $end
$var parameter 4 ^ SHIFT_LEFT $end
$var parameter 4 _ SHIFT_RIGHT $end
$var parameter 4 ` SHIFT_RIGHT_A $end
$var parameter 4 a SLT $end
$var parameter 4 b SLT_U $end
$var parameter 4 c SUB $end
$var parameter 4 d SUM $end
$var parameter 4 e XOR $end
$var reg 32 f ALU_RD_o [31:0] $end
$upscope $end
$scope module banco_de_registradores $end
$var wire 5 g RD_ADDR_i [4:0] $end
$var wire 5 h RS1_ADDR_i [4:0] $end
$var wire 32 i RS1_data_o [31:0] $end
$var wire 5 j RS2_ADDR_i [4:0] $end
$var wire 32 k RS2_data_o [31:0] $end
$var wire 1 ! clk $end
$var wire 32 l data_i [31:0] $end
$var wire 1 4 wr_en_i $end
$upscope $end
$scope module controle_alu $end
$var wire 3 m FUNC3_i [2:0] $end
$var wire 7 n FUNC7_i [6:0] $end
$var wire 1 B is_immediate_i $end
$var wire 2 o ALU_CO_i [1:0] $end
$var parameter 2 p ALU $end
$var parameter 2 q BRANCH $end
$var parameter 2 r INVALID $end
$var parameter 2 s LOAD_STORE $end
$var reg 4 t ALU_OP_o [3:0] $end
$upscope $end
$scope module gerador_de_imediatos $end
$var wire 32 u instr_i [31:0] $end
$var parameter 7 v AUIPC_OPCODE $end
$var parameter 7 w BRANCH_OPCODE $end
$var parameter 7 x IMMEDIATE_OPCODE $end
$var parameter 7 y JALR_OPCODE $end
$var parameter 7 z JAL_OPCODE $end
$var parameter 7 { LUI_OPCODE $end
$var parameter 7 | LW_OPCODE $end
$var parameter 7 } SW_OPCODE $end
$var reg 32 ~ imm_o [31:0] $end
$upscope $end
$scope module unidade_de_controle $end
$var wire 1 ! clk $end
$var wire 7 !" instruction_opcode [6:0] $end
$var wire 1 $ rst_n $end
$var parameter 4 "" ALUWB $end
$var parameter 4 #" AUIPC $end
$var parameter 7 $" AUIPCI $end
$var parameter 4 %" BRANCH $end
$var parameter 7 &" BRANCHI $end
$var parameter 4 '" DECODE $end
$var parameter 4 (" EXECUTEI $end
$var parameter 4 )" EXECUTER $end
$var parameter 4 *" FETCH $end
$var parameter 7 +" ITYPE $end
$var parameter 4 ," JAL $end
$var parameter 7 -" JALI $end
$var parameter 4 ." JALR $end
$var parameter 7 /" JALRI $end
$var parameter 4 0" JALR_PC $end
$var parameter 4 1" LUI $end
$var parameter 7 2" LUII $end
$var parameter 7 3" LW $end
$var parameter 4 4" MEMADR $end
$var parameter 4 5" MEMREAD $end
$var parameter 4 6" MEMWB $end
$var parameter 4 7" MEMWRITE $end
$var parameter 7 8" RTYPE $end
$var parameter 7 9" SW $end
$var reg 4 :" actual_state [3:0] $end
$var reg 2 ;" alu_src_a [1:0] $end
$var reg 2 <" alu_src_b [1:0] $end
$var reg 2 =" aluop [1:0] $end
$var reg 1 C ir_write $end
$var reg 1 B is_immediate $end
$var reg 1 A lorD $end
$var reg 1 @ memory_read $end
$var reg 1 ? memory_to_reg $end
$var reg 1 > memory_write $end
$var reg 4 >" next_state [3:0] $end
$var reg 1 7 pc_source $end
$var reg 1 6 pc_write $end
$var reg 1 5 pc_write_cond $end
$var reg 1 4 reg_write $end
$upscope $end
$upscope $end
$scope module mem $end
$var wire 1 % ack_o $end
$var wire 32 ?" addr_i [31:0] $end
$var wire 1 ! clk $end
$var wire 32 @" data_i [31:0] $end
$var wire 1 ' rd_en_i $end
$var wire 1 & wr_en_i $end
$var wire 32 A" data_o [31:0] $end
$var parameter 96 B" MEMORY_FILE $end
$var parameter 32 C" MEMORY_SIZE $end
$upscope $end
$upscope $end
$upscope $end
$enddefinitions $end
$comment Show the parameter values. $end
$dumpall
b1000000000000 C"
b11100000111001001101111011001110111001001100001011011010110000100101110011101000111100001110100 B"
b100011 9"
b110011 8"
b101 7"
b100 6"
b11 5"
b10 4"
b11 3"
b110111 2"
b1101 1"
b1110 0"
b1100111 /"
b1011 ."
b1101111 -"
b1001 ,"
b10011 +"
b0 *"
b110 )"
b1000 ("
b1 '"
b1100011 &"
b1010 %"
b10111 $"
b1100 #"
b111 ""
b100011 }
b11 |
b110111 {
b1101111 z
b1100111 y
b10011 x
b1100011 w
b10111 v
b0 s
b11 r
b1 q
b10 p
b1000 e
b10 d
b1010 c
b1111 b
b1110 a
b111 `
b101 _
b100 ^
b1 ]
b1001 \
b1101 [
b1100 Z
b11 Y
b0 X
b0 M
b11100000111001001101111011001110111001001100001011011010110000100101110011101000111100001110100 +
$end
#0
$dumpvars
b10100000100011 A"
bx @"
b0 ?"
b1 >"
b0 ="
b1 <"
b0 ;"
b0 :"
bx !"
bx ~
bx u
b10 t
b0 o
bx n
bx m
bx l
bx k
bx j
bx i
bx h
bx g
b100 f
b10 W
b100 V
b0 U
bx T
bx S
bx R
bx Q
bx P
bx O
b0 N
b100 L
b0 K
b1 J
0I
b0 H
b10100000100011 G
bx F
bx E
bx D
1C
0B
0A
1@
0?
0>
b0 =
b100 <
bx ;
b100 :
bx 9
b0 8
07
16
05
04
bx 3
bx 2
b10 1
bx 0
bx /
bx .
bx -
b0 ,
b0 *
bx )
b10100000100011 (
1'
0&
1%
0$
b0 #
b0 "
0!
$end
#1000
b100011 9
b100011 !"
b0 0
b0 i
b0 3
b0 h
b0 /
b0 k
b0 2
b0 j
b10000 .
b10000 g
b10 F
b10 m
b0 E
b0 n
b10000 D
b10000 ~
b100 ;
b100 l
b0 O
b10100000100011 P
b10100000100011 u
b10100000100011 T
b100 S
1!
#2000
0!
#3000
b0 )
b0 -
b0 @"
b0 R
b0 Q
1!
#4000
0!
#5000
b10 >"
b10000 :
0I
b10000 L
b10000 f
b10000 <
b10000 V
b0 (
b0 G
b0 A"
b100 *
b100 ,
b100 ?"
b100 8
b10 J
b10 <"
b10 K
b10 ;"
0'
0@
0C
06
b100 N
b1 :"
b1 "
1!
1$
#6000
0!
#7000
b101 >"
b10000 ;
b10000 l
b1 K
b1 ;"
b10000 S
b0 T
b10 :"
b10 "
1!
#8000
0!
#9000
b0 >"
b100 :
b100 L
b100 f
b10000 *
b10000 ,
b10000 ?"
b10000 8
b0 <
b0 V
b100 =
b100 U
b0 J
b0 <"
b0 K
b0 ;"
1A
1&
1>
b101 :"
b11 "
1!
#10000
0!
#11000
b1 >"
b1000 :
b1000 L
b1000 f
b11111110000000000000111011100011 (
b11111110000000000000111011100011 G
b11111110000000000000111011100011 A"
b100 <
b100 V
b100 *
b100 ,
b100 ?"
b100 8
b100 ;
b100 l
b1 J
b1 <"
0A
0&
0>
1'
1@
1C
16
b100 S
b0 :"
b100 "
1!
#12000
0!
#13000
b1010 >"
1I
b0 :
b11111111111111111111111111111100 <
b11111111111111111111111111111100 V
b0 L
b0 f
b0 (
b0 G
b0 A"
b1100011 9
b1100011 !"
b11101 .
b11101 g
b0 F
b0 m
b1111111 E
b1111111 n
b11111111111111111111111111111100 D
b11111111111111111111111111111100 ~
b1000 ;
b1000 l
b1000 *
b1000 ,
b1000 ?"
b1000 8
b100 =
b100 U
b10 J
b10 <"
b10 K
b10 ;"
0'
0@
0C
06
b100 O
b11111110000000000000111011100011 P
b11111110000000000000111011100011 u
b11111110000000000000111011100011 T
b1000 S
b1000 N
b1 :"
b101 "
1!
#14000
0!
#15000
b0 >"
b0 =
b0 U
1I
b0 L
b0 f
b0 <
b0 V
b1010 1
b1010 W
b1010 t
b0 ;
b0 l
b0 J
b0 <"
b1 K
b1 ;"
b1 H
b1 o
b1 ="
15
17
b0 S
b0 T
b1010 :"
b110 "
1!
#16000
0!
#17000
b1 >"
b100 :
0I
b100 L
b100 f
b100 <
b100 V
b10 1
b10 W
b10 t
b10100000100011 (
b10100000100011 G
b10100000100011 A"
b0 *
b0 ,
b0 ?"
b0 8
b1 J
b1 <"
b0 K
b0 ;"
b0 H
b0 o
b0 ="
05
1'
1@
07
1C
16
b0 N
b0 :"
b111 "
1!
#18000
0!
#19000
b10 >"
0I
b10000 <
b10000 V
b10000 :
b0 (
b0 G
b0 A"
b10000 L
b10000 f
b100 ;
b100 l
b100011 9
b100011 !"
b10000 .
b10000 g
b10 F
b10 m
b0 E
b0 n
b10000 D
b10000 ~
b10 J
b10 <"
b10 K
b10 ;"
0'
0@
0C
06
b100 *
b100 ,
b100 ?"
b100 8
b0 =
b0 U
b100 S
b10100000100011 T
b10100000100011 P
b10100000100011 u
b0 O
b1 :"
b100 N
b1000 "
1!
#20000
0!
#21000
b101 >"
b10000 ;
b10000 l
b1 K
b1 ;"
b0 T
b10000 S
b10 :"
b1001 "
1!
#22000
0!
#23000
b0 >"
b100 :
b100 L
b100 f
b10000 *
b10000 ,
b10000 ?"
b10000 8
b0 <
b0 V
b100 =
b100 U
b0 J
b0 <"
b0 K
b0 ;"
1A
1&
1>
b101 :"
b1010 "
1!
#24000
0!
#25000
b1 >"
b1000 :
b1000 L
b1000 f
b11111110000000000000111011100011 (
b11111110000000000000111011100011 G
b11111110000000000000111011100011 A"
b100 <
b100 V
b100 *
b100 ,
b100 ?"
b100 8
b100 ;
b100 l
b1 J
b1 <"
0A
0&
0>
1'
1@
1C
16
b100 S
b0 :"
b1011 "
1!
#26000
0!
#27000
b1010 >"
1I
b11111111111111111111111111111100 <
b11111111111111111111111111111100 V
b0 :
b0 (
b0 G
b0 A"
b0 L
b0 f
b1000 ;
b1000 l
b1100011 9
b1100011 !"
b11101 .
b11101 g
b0 F
b0 m
b1111111 E
b1111111 n
b11111111111111111111111111111100 D
b11111111111111111111111111111100 ~
b10 J
b10 <"
b10 K
b10 ;"
0'
0@
0C
06
b1000 *
b1000 ,
b1000 ?"
b1000 8
b100 =
b100 U
b1000 S
b11111110000000000000111011100011 T
b11111110000000000000111011100011 P
b11111110000000000000111011100011 u
b100 O
b1 :"
b1000 N
b1100 "
1!
#28000
0!
#29000
b0 >"
b0 =
b0 U
1I
b0 L
b0 f
b0 <
b0 V
b1010 1
b1010 W
b1010 t
b0 ;
b0 l
b0 J
b0 <"
b1 K
b1 ;"
b1 H
b1 o
b1 ="
15
17
b0 T
b0 S
b1010 :"
b1101 "
1!
#30000
0!
#31000
b1 >"
b100 :
0I
b100 L
b100 f
b100 <
b100 V
b10 1
b10 W
b10 t
b10100000100011 (
b10100000100011 G
b10100000100011 A"
b1 J
b1 <"
b0 K
b0 ;"
b0 H
b0 o
b0 ="
05
1'
1@
07
1C
16
b0 *
b0 ,
b0 ?"
b0 8
b0 :"
b0 N
b1110 "
1!
#32000
0!
#33000
b10 >"
b10000 :
0I
b10000 L
b10000 f
b10000 <
b10000 V
b0 (
b0 G
b0 A"
b100011 9
b100011 !"
b10000 .
b10000 g
b10 F
b10 m
b0 E
b0 n
b10000 D
b10000 ~
b100 ;
b100 l
b100 *
b100 ,
b100 ?"
b100 8
b10 J
b10 <"
b10 K
b10 ;"
0'
0@
0C
06
b0 O
b10100000100011 P
b10100000100011 u
b10100000100011 T
b100 S
b100 N
b1 :"
b1111 "
1!
#34000
0!
#35000
b101 >"
b10000 ;
b10000 l
b1 K
b1 ;"
b10000 S
b0 T
b10 :"
b10000 "
1!
#36000
0!
#37000
b0 >"
b100 :
b100 L
b100 f
b10000 *
b10000 ,
b10000 ?"
b10000 8
b0 <
b0 V
b100 =
b100 U
b0 J
b0 <"
b0 K
b0 ;"
1A
1&
1>
b101 :"
b10001 "
1!
#38000
0!
#39000
b1 >"
b1000 :
b1000 L
b1000 f
b11111110000000000000111011100011 (
b11111110000000000000111011100011 G
b11111110000000000000111011100011 A"
b100 <
b100 V
b100 *
b100 ,
b100 ?"
b100 8
b100 ;
b100 l
b1 J
b1 <"
0A
0&
0>
1'
1@
1C
16
b100 S
b0 :"
b10010 "
1!
#40000
0!
#41000
b1010 >"
1I
b0 :
b11111111111111111111111111111100 <
b11111111111111111111111111111100 V
b0 L
b0 f
b0 (
b0 G
b0 A"
b1100011 9
b1100011 !"
b11101 .
b11101 g
b0 F
b0 m
b1111111 E
b1111111 n
b11111111111111111111111111111100 D
b11111111111111111111111111111100 ~
b1000 ;
b1000 l
b1000 *
b1000 ,
b1000 ?"
b1000 8
b100 =
b100 U
b10 J
b10 <"
b10 K
b10 ;"
0'
0@
0C
06
b100 O
b11111110000000000000111011100011 P
b11111110000000000000111011100011 u
b11111110000000000000111011100011 T
b1000 S
b1000 N
b1 :"
b10011 "
1!
#42000
0!
#43000
b0 >"
b0 =
b0 U
1I
b0 L
b0 f
b0 <
b0 V
b1010 1
b1010 W
b1010 t
b0 ;
b0 l
b0 J
b0 <"
b1 K
b1 ;"
b1 H
b1 o
b1 ="
15
17
b0 S
b0 T
b1010 :"
b10100 "
1!
#44000
0!
#45000
b1 >"
b100 :
0I
b100 L
b100 f
b100 <
b100 V
b10 1
b10 W
b10 t
b10100000100011 (
b10100000100011 G
b10100000100011 A"
b0 *
b0 ,
b0 ?"
b0 8
b1 J
b1 <"
b0 K
b0 ;"
b0 H
b0 o
b0 ="
05
1'
1@
07
1C
16
b0 N
b0 :"
b10101 "
1!
#46000
0!
#47000
b10 >"
0I
b10000 <
b10000 V
b10000 :
b0 (
b0 G
b0 A"
b10000 L
b10000 f
b100 ;
b100 l
b100011 9
b100011 !"
b10000 .
b10000 g
b10 F
b10 m
b0 E
b0 n
b10000 D
b10000 ~
b10 J
b10 <"
b10 K
b10 ;"
0'
0@
0C
06
b100 *
b100 ,
b100 ?"
b100 8
b0 =
b0 U
b100 S
b10100000100011 T
b10100000100011 P
b10100000100011 u
b0 O
b1 :"
b100 N
b10110 "
1!
#48000
0!
#49000
b101 >"
b10000 ;
b10000 l
b1 K
b1 ;"
b0 T
b10000 S
b10 :"
b10111 "
1!
#50000
0!
#51000
b0 >"
b100 :
b100 L
b100 f
b10000 *
b10000 ,
b10000 ?"
b10000 8
b0 <
b0 V
b100 =
b100 U
b0 J
b0 <"
b0 K
b0 ;"
1A
1&
1>
b101 :"
b11000 "
1!
#52000
0!
#53000
b1 >"
b1000 :
b1000 L
b1000 f
b11111110000000000000111011100011 (
b11111110000000000000111011100011 G
b11111110000000000000111011100011 A"
b100 <
b100 V
b100 *
b100 ,
b100 ?"
b100 8
b100 ;
b100 l
b1 J
b1 <"
0A
0&
0>
1'
1@
1C
16
b100 S
b0 :"
b11001 "
1!
#54000
0!
#55000
b1010 >"
1I
b11111111111111111111111111111100 <
b11111111111111111111111111111100 V
b0 :
b0 (
b0 G
b0 A"
b0 L
b0 f
b1000 ;
b1000 l
b1100011 9
b1100011 !"
b11101 .
b11101 g
b0 F
b0 m
b1111111 E
b1111111 n
b11111111111111111111111111111100 D
b11111111111111111111111111111100 ~
b10 J
b10 <"
b10 K
b10 ;"
0'
0@
0C
06
b1000 *
b1000 ,
b1000 ?"
b1000 8
b100 =
b100 U
b1000 S
b11111110000000000000111011100011 T
b11111110000000000000111011100011 P
b11111110000000000000111011100011 u
b100 O
b1 :"
b1000 N
b11010 "
1!
#56000
0!
#57000
b0 >"
b0 =
b0 U
1I
b0 L
b0 f
b0 <
b0 V
b1010 1
b1010 W
b1010 t
b0 ;
b0 l
b0 J
b0 <"
b1 K
b1 ;"
b1 H
b1 o
b1 ="
15
17
b0 T
b0 S
b1010 :"
b11011 "
1!
#58000
0!
#59000
b1 >"
b100 :
0I
b100 L
b100 f
b100 <
b100 V
b10 1
b10 W
b10 t
b10100000100011 (
b10100000100011 G
b10100000100011 A"
b1 J
b1 <"
b0 K
b0 ;"
b0 H
b0 o
b0 ="
05
1'
1@
07
1C
16
b0 *
b0 ,
b0 ?"
b0 8
b0 :"
b0 N
b11100 "
1!
#60000
0!
#61000
b10 >"
b10000 :
0I
b10000 L
b10000 f
b10000 <
b10000 V
b0 (
b0 G
b0 A"
b100011 9
b100011 !"
b10000 .
b10000 g
b10 F
b10 m
b0 E
b0 n
b10000 D
b10000 ~
b100 ;
b100 l
b100 *
b100 ,
b100 ?"
b100 8
b10 J
b10 <"
b10 K
b10 ;"
0'
0@
0C
06
b0 O
b10100000100011 P
b10100000100011 u
b10100000100011 T
b100 S
b100 N
b1 :"
b11101 "
1!
#62000
0!
#63000
b101 >"
b10000 ;
b10000 l
b1 K
b1 ;"
b10000 S
b0 T
b10 :"
b11110 "
1!
#64000
0!
#65000
b0 >"
b100 :
b100 L
b100 f
b10000 *
b10000 ,
b10000 ?"
b10000 8
b0 <
b0 V
b100 =
b100 U
b0 J
b0 <"
b0 K
b0 ;"
1A
1&
1>
b101 :"
b11111 "
1!
#66000
0!
#67000
b1 >"
b1000 :
b1000 L
b1000 f
b11111110000000000000111011100011 (
b11111110000000000000111011100011 G
b11111110000000000000111011100011 A"
b100 <
b100 V
b100 *
b100 ,
b100 ?"
b100 8
b100 ;
b100 l
b1 J
b1 <"
0A
0&
0>
1'
1@
1C
16
b100 S
b0 :"
b100000 "
1!
#68000
0!
#69000
b1010 >"
1I
b0 :
b11111111111111111111111111111100 <
b11111111111111111111111111111100 V
b0 L
b0 f
b0 (
b0 G
b0 A"
b1100011 9
b1100011 !"
b11101 .
b11101 g
b0 F
b0 m
b1111111 E
b1111111 n
b11111111111111111111111111111100 D
b11111111111111111111111111111100 ~
b1000 ;
b1000 l
b1000 *
b1000 ,
b1000 ?"
b1000 8
b100 =
b100 U
b10 J
b10 <"
b10 K
b10 ;"
0'
0@
0C
06
b100 O
b11111110000000000000111011100011 P
b11111110000000000000111011100011 u
b11111110000000000000111011100011 T
b1000 S
b1000 N
b1 :"
b100001 "
1!
#70000
0!
#71000
b0 >"
b0 =
b0 U
1I
b0 L
b0 f
b0 <
b0 V
b1010 1
b1010 W
b1010 t
b0 ;
b0 l
b0 J
b0 <"
b1 K
b1 ;"
b1 H
b1 o
b1 ="
15
17
b0 S
b0 T
b1010 :"
b100010 "
1!
#72000
0!
#73000
b1 >"
b100 :
0I
b100 L
b100 f
b100 <
b100 V
b10 1
b10 W
b10 t
b10100000100011 (
b10100000100011 G
b10100000100011 A"
b0 *
b0 ,
b0 ?"
b0 8
b1 J
b1 <"
b0 K
b0 ;"
b0 H
b0 o
b0 ="
05
1'
1@
07
1C
16
b0 N
b0 :"
b100011 "
1!
#74000
0!
#75000
b10 >"
0I
b10000 <
b10000 V
b10000 :
b0 (
b0 G
b0 A"
b10000 L
b10000 f
b100 ;
b100 l
b100011 9
b100011 !"
b10000 .
b10000 g
b10 F
b10 m
b0 E
b0 n
b10000 D
b10000 ~
b10 J
b10 <"
b10 K
b10 ;"
0'
0@
0C
06
b100 *
b100 ,
b100 ?"
b100 8
b0 =
b0 U
b100 S
b10100000100011 T
b10100000100011 P
b10100000100011 u
b0 O
b1 :"
b100 N
b100100 "
1!
#76000
0!
#77000
b101 >"
b10000 ;
b10000 l
b1 K
b1 ;"
b0 T
b10000 S
b10 :"
b100101 "
1!
#78000
0!
#79000
b0 >"
b100 :
b100 L
b100 f
b10000 *
b10000 ,
b10000 ?"
b10000 8
b0 <
b0 V
b100 =
b100 U
b0 J
b0 <"
b0 K
b0 ;"
1A
1&
1>
b101 :"
b100110 "
1!
#80000
0!
#81000
b1 >"
b1000 :
b1000 L
b1000 f
b11111110000000000000111011100011 (
b11111110000000000000111011100011 G
b11111110000000000000111011100011 A"
b100 <
b100 V
b100 *
b100 ,
b100 ?"
b100 8
b100 ;
b100 l
b1 J
b1 <"
0A
0&
0>
1'
1@
1C
16
b100 S
b0 :"
b100111 "
1!
#82000
0!
#83000
b1010 >"
1I
b11111111111111111111111111111100 <
b11111111111111111111111111111100 V
b0 :
b0 (
b0 G
b0 A"
b0 L
b0 f
b1000 ;
b1000 l
b1100011 9
b1100011 !"
b11101 .
b11101 g
b0 F
b0 m
b1111111 E
b1111111 n
b11111111111111111111111111111100 D
b11111111111111111111111111111100 ~
b10 J
b10 <"
b10 K
b10 ;"
0'
0@
0C
06
b1000 *
b1000 ,
b1000 ?"
b1000 8
b100 =
b100 U
b1000 S
b11111110000000000000111011100011 T
b11111110000000000000111011100011 P
b11111110000000000000111011100011 u
b100 O
b1 :"
b1000 N
b101000 "
1!
#84000
0!
#85000
b0 >"
b0 =
b0 U
1I
b0 L
b0 f
b0 <
b0 V
b1010 1
b1010 W
b1010 t
b0 ;
b0 l
b0 J
b0 <"
b1 K
b1 ;"
b1 H
b1 o
b1 ="
15
17
b0 T
b0 S
b1010 :"
b101001 "
1!
#86000
0!
#87000
b1 >"
b100 :
0I
b100 L
b100 f
b100 <
b100 V
b10 1
b10 W
b10 t
b10100000100011 (
b10100000100011 G
b10100000100011 A"
b1 J
b1 <"
b0 K
b0 ;"
b0 H
b0 o
b0 ="
05
1'
1@
07
1C
16
b0 *
b0 ,
b0 ?"
b0 8
b0 :"
b0 N
b101010 "
1!
#88000
0!
#89000
b10 >"
b10000 :
0I
b10000 L
b10000 f
b10000 <
b10000 V
b0 (
b0 G
b0 A"
b100011 9
b100011 !"
b10000 .
b10000 g
b10 F
b10 m
b0 E
b0 n
b10000 D
b10000 ~
b100 ;
b100 l
b100 *
b100 ,
b100 ?"
b100 8
b10 J
b10 <"
b10 K
b10 ;"
0'
0@
0C
06
b0 O
b10100000100011 P
b10100000100011 u
b10100000100011 T
b100 S
b100 N
b1 :"
b101011 "
1!
#90000
0!
#91000
b101 >"
b10000 ;
b10000 l
b1 K
b1 ;"
b10000 S
b0 T
b10 :"
b101100 "
1!
#92000
0!
#93000
b0 >"
b100 :
b100 L
b100 f
b10000 *
b10000 ,
b10000 ?"
b10000 8
b0 <
b0 V
b100 =
b100 U
b0 J
b0 <"
b0 K
b0 ;"
1A
1&
1>
b101 :"
b101101 "
1!
#94000
0!
#95000
b1 >"
b1000 :
b1000 L
b1000 f
b11111110000000000000111011100011 (
b11111110000000000000111011100011 G
b11111110000000000000111011100011 A"
b100 <
b100 V
b100 *
b100 ,
b100 ?"
b100 8
b100 ;
b100 l
b1 J
b1 <"
0A
0&
0>
1'
1@
1C
16
b100 S
b0 :"
b101110 "
1!
#96000
0!
#97000
b1010 >"
1I
b0 :
b11111111111111111111111111111100 <
b11111111111111111111111111111100 V
b0 L
b0 f
b0 (
b0 G
b0 A"
b1100011 9
b1100011 !"
b11101 .
b11101 g
b0 F
b0 m
b1111111 E
b1111111 n
b11111111111111111111111111111100 D
b11111111111111111111111111111100 ~
b1000 ;
b1000 l
b1000 *
b1000 ,
b1000 ?"
b1000 8
b100 =
b100 U
b10 J
b10 <"
b10 K
b10 ;"
0'
0@
0C
06
b100 O
b11111110000000000000111011100011 P
b11111110000000000000111011100011 u
b11111110000000000000111011100011 T
b1000 S
b1000 N
b1 :"
b101111 "
1!
#98000
0!
#99000
b0 >"
b0 =
b0 U
1I
b0 L
b0 f
b0 <
b0 V
b1010 1
b1010 W
b1010 t
b0 ;
b0 l
b0 J
b0 <"
b1 K
b1 ;"
b1 H
b1 o
b1 ="
15
17
b0 S
b0 T
b1010 :"
b110000 "
1!
#100000
0!
#101000
b1 >"
b100 :
0I
b100 L
b100 f
b100 <
b100 V
b10 1
b10 W
b10 t
b10100000100011 (
b10100000100011 G
b10100000100011 A"
b0 *
b0 ,
b0 ?"
b0 8
b1 J
b1 <"
b0 K
b0 ;"
b0 H
b0 o
b0 ="
05
1'
1@
07
1C
16
b0 N
b0 :"
b110001 "
1!
#102000
0!
#103000
b10 >"
0I
b10000 <
b10000 V
b10000 :
b0 (
b0 G
b0 A"
b10000 L
b10000 f
b100 ;
b100 l
b100011 9
b100011 !"
b10000 .
b10000 g
b10 F
b10 m
b0 E
b0 n
b10000 D
b10000 ~
b10 J
b10 <"
b10 K
b10 ;"
0'
0@
0C
06
b100 *
b100 ,
b100 ?"
b100 8
b0 =
b0 U
b100 S
b10100000100011 T
b10100000100011 P
b10100000100011 u
b0 O
b1 :"
b100 N
b110010 "
1!
#104000
0!
#105000
b101 >"
b10000 ;
b10000 l
b1 K
b1 ;"
b0 T
b10000 S
b10 :"
b110011 "
1!
#106000
0!
#107000
b0 >"
b100 :
b100 L
b100 f
b10000 *
b10000 ,
b10000 ?"
b10000 8
b0 <
b0 V
b100 =
b100 U
b0 J
b0 <"
b0 K
b0 ;"
1A
1&
1>
b101 :"
1!
#108000
0!
#109000
b1 >"
b1000 :
b1000 L
b1000 f
b11111110000000000000111011100011 (
b11111110000000000000111011100011 G
b11111110000000000000111011100011 A"
b100 <
b100 V
b100 *
b100 ,
b100 ?"
b100 8
b100 ;
b100 l
b1 J
b1 <"
0A
0&
0>
1'
1@
1C
16
b100 S
b0 :"
1!
